{
    "crate2nix": {
        "branch": "master",
        "description": "nix build file generator for rust crates",
        "homepage": "",
        "owner": "kolloch",
        "repo": "crate2nix",
        "rev": "3701179c8aef0677dab1915457ca0f367f2dc523",
        "sha256": "0z5vz3dcbx53a7q6xrm8qjrn62zlvzvaxdisv2axfh70qq4lx4n2",
        "type": "tarball",
        "url": "https://github.com/kolloch/crate2nix/archive/3701179c8aef0677dab1915457ca0f367f2dc523.tar.gz",
        "url_template": "https://github.com/<owner>/<repo>/archive/<rev>.tar.gz"
    },
    "nixGL": {
        "branch": "master",
        "description": "A wrapper tool for nix OpenGL application",
        "homepage": null,
        "owner": "guibou",
        "repo": "nixGL",
        "rev": "7d6bc1b21316bab6cf4a6520c2639a11c25a220e",
        "sha256": "02y38zmdplk7a9ihsxvnrzhhv7324mmf5g8hmxqizaid5k5ydpr3",
        "type": "tarball",
        "url": "https://github.com/guibou/nixGL/archive/7d6bc1b21316bab6cf4a6520c2639a11c25a220e.tar.gz",
        "url_template": "https://github.com/<owner>/<repo>/archive/<rev>.tar.gz"
    },
    "nixpkgs": {
        "branch": "nixpkgs-unstable",
        "description": "Nix Packages collection",
        "homepage": "",
        "owner": "NixOS",
        "repo": "nixpkgs",
        "rev": "c00959877fb06b09468562518b408acda886c79e",
        "sha256": "02anj9mbzy45bszlmv7k42mb5y7yj2lxc5vpbxgd3f5qljn5ih7y",
        "type": "tarball",
        "url": "https://github.com/NixOS/nixpkgs/archive/c00959877fb06b09468562518b408acda886c79e.tar.gz",
        "url_template": "https://github.com/<owner>/<repo>/archive/<rev>.tar.gz"
    },
    "nixpkgsMoz": {
        "branch": "master",
        "description": "mozilla related nixpkgs (extends nixos/nixpkgs repo)",
        "homepage": null,
        "owner": "mozilla",
        "repo": "nixpkgs-mozilla",
        "rev": "8c007b60731c07dd7a052cce508de3bb1ae849b4",
        "sha256": "1zybp62zz0h077zm2zmqs2wcg3whg6jqaah9hcl1gv4x8af4zhs6",
        "type": "tarball",
        "url": "https://github.com/mozilla/nixpkgs-mozilla/archive/8c007b60731c07dd7a052cce508de3bb1ae849b4.tar.gz",
        "url_template": "https://github.com/<owner>/<repo>/archive/<rev>.tar.gz"
    }
}
